…
# Installation

``` r
# install.packages("devtools")
devtools::install_github("jjchern/zcta")
```

# Usage

``` r
library(tidyverse)

# Data
zcta::zcta_county_rel_10
#> # A tibble: 44,410 x 24
#>    zcta5 state county  geoid  poppt   hupt areapt arealandpt   zpop    zhu
#>    <chr> <dbl> <chr>   <dbl>  <dbl>  <dbl>  <dbl>      <dbl>  <dbl>  <dbl>
#>  1 00601   72. 001    72001. 18465.  7695. 1.65e8 164333375. 18570.  7744.
#>  2 00601   72. 141    72141.   105.    49. 2.33e6   2326414. 18570.  7744.
#>  3 00602   72. 003    72003. 41520. 18073. 8.37e7  79288158. 41520. 18073.
#>  4 00603   72. 005    72005. 54689. 25653. 8.21e7  81880442. 54689. 25653.
#>  5 00606   72. 093    72093.  6276.  2740. 9.49e7  94851862.  6615.  2877.
#>  6 00606   72. 121    72121.    89.    38. 6.68e6   6679806.  6615.  2877.
#>  7 00606   72. 153    72153.   250.    99. 8.05e6   8048393.  6615.  2877.
#>  8 00610   72. 003    72003.   160.    62. 2.37e5    237185. 29016. 12618.
#>  9 00610   72. 011    72011. 28856. 12556. 9.70e7  92784282. 29016. 12618.
#> 10 00612   72. 013    72013. 66938. 30961. 1.84e8 174066899. 67010. 30992.
#> # ... with 44,400 more rows, and 14 more variables: zarea <dbl>,
#> #   zarealand <dbl>, copop <dbl>, cohu <dbl>, coarea <dbl>,
#> #   coarealand <dbl>, zpoppct <dbl>, zhupct <dbl>, zareapct <dbl>,
#> #   zarealandpct <dbl>, copoppct <dbl>, cohupct <dbl>, coareapct <dbl>,
#> #   coarealandpct <dbl>
…
# To get an one-to-one relationship between zcta and county, assign county to 
# a zcta if the zcta has the most population. For Example:
# Before: zcta 601 fall in county 72001 and 72141
zcta::zcta_county_rel_10 %>% 
  select(zcta5, state, county, geoid, poppt, zpoppct)
#> # A tibble: 44,410 x 6
#>    zcta5 state county  geoid  poppt zpoppct
#>    <chr> <dbl> <chr>   <dbl>  <dbl>   <dbl>
#>  1 00601   72. 001    72001. 18465.  99.4  
#>  2 00601   72. 141    72141.   105.   0.570
#>  3 00602   72. 003    72003. 41520. 100.   
#>  4 00603   72. 005    72005. 54689. 100.   
#>  5 00606   72. 093    72093.  6276.  94.9  
#>  6 00606   72. 121    72121.    89.   1.35 
#>  7 00606   72. 153    72153.   250.   3.78 
#>  8 00610   72. 003    72003.   160.   0.550
#>  9 00610   72. 011    72011. 28856.  99.4  
#> 10 00612   72. 013    72013. 66938.  99.9  
#> # ... with 44,400 more rows

# After: relate zcta 601 only to county 72001 as it accounts for 99.43% of the population
one_to_one_pop = zcta::zcta_county_rel_10 %>% 
  select(zcta5, state, county, geoid, poppt, zpoppct) %>% 
  group_by(zcta5) %>% 
  slice(which.max(zpoppct))
one_to_one_pop
#> # A tibble: 33,120 x 6
#> # Groups:   zcta5 [33,120]
#>    zcta5 state county  geoid  poppt zpoppct
#>    <chr> <dbl> <chr>   <dbl>  <dbl>   <dbl>
#>  1 00601   72. 001    72001. 18465.    99.4
#>  2 00602   72. 003    72003. 41520.   100. 
#>  3 00603   72. 005    72005. 54689.   100. 
#>  4 00606   72. 093    72093.  6276.    94.9
#>  5 00610   72. 011    72011. 28856.    99.4
#>  6 00612   72. 013    72013. 66938.    99.9
#>  7 00616   72. 013    72013. 11017.   100. 
#>  8 00617   72. 017    72017. 24457.    99.4
#>  9 00622   72. 023    72023.  7853.   100. 
#> 10 00623   72. 023    72023. 43061.   100. 
#> # ... with 33,110 more rows

# Or assign county to a zcta if the zcta accounts for most of the area.
one_to_one_area = zcta::zcta_county_rel_10 %>% 
  select(zcta5, state, county, geoid, poppt, zpoppct, zareapct) %>% 
  group_by(zcta5) %>% 
  slice(which.max(zareapct))
one_to_one_area
#> # A tibble: 33,120 x 7
#> # Groups:   zcta5 [33,120]
#>    zcta5 state county  geoid  poppt zpoppct zareapct
#>    <chr> <dbl> <chr>   <dbl>  <dbl>   <dbl>    <dbl>
#>  1 00601   72. 001    72001. 18465.    99.4     98.6
#>  2 00602   72. 003    72003. 41520.   100.     100. 
#>  3 00603   72. 005    72005. 54689.   100.     100. 
#>  4 00606   72. 093    72093.  6276.    94.9     86.6
#>  5 00610   72. 011    72011. 28856.    99.4     99.8
#>  6 00612   72. 013    72013. 66938.    99.9     99.4
#>  7 00616   72. 013    72013. 11017.   100.     100. 
#>  8 00617   72. 017    72017. 24457.    99.4     99.6
#>  9 00622   72. 023    72023.  7853.   100.     100. 
#> 10 00623   72. 023    72023. 43061.   100.     100. 
#> # ... with 33,110 more rows

# Merge the two 1 to 1 relationship datasets and identify zctas that have different county match
one_to_one_pop %>% 
  left_join(one_to_one_area, by = "zcta5") %>% 
  select(zcta5, 
         county.x, geoid.x, zpoppct.x, 
         county.y, geoid.y, zpoppct.y) %>% 
  mutate(diff = geoid.x - geoid.y) %>% 
  filter(diff != 0)
#> # A tibble: 922 x 8
#> # Groups:   zcta5 [922]
#>    zcta5 county.x geoid.x zpoppct.x county.y geoid.y zpoppct.y   diff
#>    <chr> <chr>      <dbl>     <dbl> <chr>      <dbl>     <dbl>  <dbl>
#>  1 00934 061       72061.      58.0 021       72021.     42.0     40.
#>  2 02543 001       25001.      96.4 007       25007.      3.62    -6.
#>  3 03579 007       33007.      77.7 017       23017.     22.3   9990.
#>  4 04424 029       23029.      71.6 003       23003.     28.4     26.
#>  5 04429 019       23019.      65.2 009       23009.     34.8     10.
#>  6 04459 019       23019.      88.9 003       23003.     11.1     16.
#>  7 04462 019       23019.      99.0 021       23021.      1.03    -2.
#>  8 04942 025       23025.      78.4 021       23021.     21.6      4.
#>  9 05842 019       50019.      61.3 005       50005.     38.7     14.
#> 10 07747 025       34025.      65.5 023       34023.     34.5      2.
#> # ... with 912 more rows

# Get county names for the 1 to 1 relationship dataset
# Also keep just states and DC
one_to_one_pop %>% 
  left_join(gaze::county10 %>% mutate(geoid = as.numeric(geoid)), by = "geoid") %>% 
  select(zcta5, state, usps, county, geoid, name) %>% 
  filter(state <= 56) %>% 
  group_by(state)
#> # A tibble: 32,989 x 6
#> # Groups:   state [51]
#>    zcta5 state usps  county  geoid name            
#>    <chr> <dbl> <chr> <chr>   <dbl> <chr>           
#>  1 01001   25. MA    013    25013. Hampden County  
#>  2 01002   25. MA    015    25015. Hampshire County
#>  3 01003   25. MA    015    25015. Hampshire County
#>  4 01005   25. MA    027    25027. Worcester County
#>  5 01007   25. MA    015    25015. Hampshire County
#>  6 01008   25. MA    013    25013. Hampden County  
#>  7 01009   25. MA    013    25013. Hampden County  
#>  8 01010   25. MA    013    25013. Hampden County  
#>  9 01011   25. MA    013    25013. Hampden County  
#> 10 01012   25. MA    015    25015. Hampshire County
#> # ... with 32,979 more rows
```
